ISSS608 AY2021-22(T2): Take-Home Exercise 4
…
ISSS608 AY2021-22(T2): Take-Home Exercise 4

Reveal the impact of COVID-19 on the stock prices of top 40 companies in Singapore by market capitalisation

  Melissa Tan  (SMU MITB Analytics Track)https://scis.smu.edu.sg/master-it-business/analytics-track/curriculum?gclid=CjwKCAiA3L6PBhBvEiwAINlJ9EJwYxpaZv-zPxR0UMntDh37TrlWU7jwXP9Dcu9jvWvN8uEJsOWzTRoCqrQQAvD_BwE

2022-02-23

# A tibble: 40 x 1
   Symbol 
   <chr>  
 1 SE     
 2 DBSDF  
 3 O39.SI 
 4 U11.SI 
 5 SNGNF  
 6 WLMIF  
 7 GRAB   
 8 SINGF  
 9 C38U.SI
10 SJX.F  
# ... with 30 more rows
…
